…
As an `EZbakRData` object is a list, its elements can be accessed in a
few ways:

``` r
# `$` notation:
ezbdo$fractions$feature
#> # A tibble: 1,800 × 6
#>    sample  feature fraction_highTC logit_fraction_highTC se_logit_fraction_hig…¹
#>    <chr>   <chr>             <dbl>                 <dbl>                   <dbl>
#>  1 sample1 Gene1            0.0948                 -2.26                  0.0677
#>  2 sample1 Gene10           0.217                  -1.28                  0.112 
#>  3 sample1 Gene100          0.188                  -1.46                  0.0774
#>  4 sample1 Gene101          0.185                  -1.48                  0.0324
#>  5 sample1 Gene102          0.141                  -1.80                  0.0910
#>  6 sample1 Gene103          0.125                  -1.94                  0.0836
#>  7 sample1 Gene104          0.152                  -1.72                  0.0390
#>  8 sample1 Gene105          0.0841                 -2.39                  0.0869
#>  9 sample1 Gene106          0.181                  -1.51                  0.0863
#> 10 sample1 Gene107          0.173                  -1.57                  0.0458
#> # ℹ 1,790 more rows
#> # ℹ abbreviated name: ¹​se_logit_fraction_highTC
#> # ℹ 1 more variable: n <int>

# `[[]]` notation with element names
ezbdo[['fractions']][['feature']]
#> # A tibble: 1,800 × 6
#>    sample  feature fraction_highTC logit_fraction_highTC se_logit_fraction_hig…¹
#>    <chr>   <chr>             <dbl>                 <dbl>                   <dbl>
#>  1 sample1 Gene1            0.0948                 -2.26                  0.0677
#>  2 sample1 Gene10           0.217                  -1.28                  0.112 
#>  3 sample1 Gene100          0.188                  -1.46                  0.0774
#>  4 sample1 Gene101          0.185                  -1.48                  0.0324
#>  5 sample1 Gene102          0.141                  -1.80                  0.0910
#>  6 sample1 Gene103          0.125                  -1.94                  0.0836
#>  7 sample1 Gene104          0.152                  -1.72                  0.0390
#>  8 sample1 Gene105          0.0841                 -2.39                  0.0869
#>  9 sample1 Gene106          0.181                  -1.51                  0.0863
#> 10 sample1 Gene107          0.173                  -1.57                  0.0458
#> # ℹ 1,790 more rows
#> # ℹ abbreviated name: ¹​se_logit_fraction_highTC
#> # ℹ 1 more variable: n <int>

# `[[]]` notation with numeric indices
ezbdo[[4]][[1]]
#> # A tibble: 1,800 × 6
#>    sample  feature fraction_highTC logit_fraction_highTC se_logit_fraction_hig…¹
#>    <chr>   <chr>             <dbl>                 <dbl>                   <dbl>
#>  1 sample1 Gene1            0.0948                 -2.26                  0.0677
#>  2 sample1 Gene10           0.217                  -1.28                  0.112 
#>  3 sample1 Gene100          0.188                  -1.46                  0.0774
#>  4 sample1 Gene101          0.185                  -1.48                  0.0324
#>  5 sample1 Gene102          0.141                  -1.80                  0.0910
#>  6 sample1 Gene103          0.125                  -1.94                  0.0836
#>  7 sample1 Gene104          0.152                  -1.72                  0.0390
#>  8 sample1 Gene105          0.0841                 -2.39                  0.0869
#>  9 sample1 Gene106          0.181                  -1.51                  0.0863
#> 10 sample1 Gene107          0.173                  -1.57                  0.0458
#> # ℹ 1,790 more rows
#> # ℹ abbreviated name: ¹​se_logit_fraction_highTC
#> # ℹ 1 more variable: n <int>
```
…
