EZget • EZbakR
…
readcounts: List of tables of read counts generated
by various EZbakR functions.

metadata: List with elements corresponding to the
lists of tables described above. Describes various features of the
tables so that they can be fetched with EZget().

As an EZbakRData object is a list, its elements can be
accessed in a few ways:

# `$` notation:
ezbdo$fractions$feature
#> # A tibble: 1,800 × 6
#>    sample  feature fraction_highTC logit_fraction_highTC se_logit_fraction_hig…¹
#>    <chr>   <chr>             <dbl>                 <dbl>                   <dbl>
#>  1 sample1 Gene1            0.103                  -2.17                  0.0618
#>  2 sample1 Gene10           0.224                  -1.24                  0.110 
#>  3 sample1 Gene100          0.189                  -1.46                  0.0717
#>  4 sample1 Gene101          0.184                  -1.49                  0.0338
#>  5 sample1 Gene102          0.142                  -1.80                  0.0920
#>  6 sample1 Gene103          0.117                  -2.02                  0.0865
#>  7 sample1 Gene104          0.152                  -1.72                  0.0398
#>  8 sample1 Gene105          0.0836                 -2.39                  0.0868
#>  9 sample1 Gene106          0.178                  -1.53                  0.0888
#> 10 sample1 Gene107          0.162                  -1.65                  0.0465
#> # ℹ 1,790 more rows
#> # ℹ abbreviated name: ¹​se_logit_fraction_highTC
#> # ℹ 1 more variable: n <int>

# `[[]]` notation
ezbdo[['fractions']][['feature']]
#> # A tibble: 1,800 × 6
#>    sample  feature fraction_highTC logit_fraction_highTC se_logit_fraction_hig…¹
#>    <chr>   <chr>             <dbl>                 <dbl>                   <dbl>
#>  1 sample1 Gene1            0.103                  -2.17                  0.0618
#>  2 sample1 Gene10           0.224                  -1.24                  0.110 
#>  3 sample1 Gene100          0.189                  -1.46                  0.0717
#>  4 sample1 Gene101          0.184                  -1.49                  0.0338
#>  5 sample1 Gene102          0.142                  -1.80                  0.0920
#>  6 sample1 Gene103          0.117                  -2.02                  0.0865
#>  7 sample1 Gene104          0.152                  -1.72                  0.0398
#>  8 sample1 Gene105          0.0836                 -2.39                  0.0868
#>  9 sample1 Gene106          0.178                  -1.53                  0.0888
#> 10 sample1 Gene107          0.162                  -1.65                  0.0465
#> # ℹ 1,790 more rows
#> # ℹ abbreviated name: ¹​se_logit_fraction_highTC
#> # ℹ 1 more variable: n <int>

# `[[]]` notation with numeric indices
ezbdo[[4]][[1]]
#> # A tibble: 1,800 × 6
#>    sample  feature fraction_highTC logit_fraction_highTC se_logit_fraction_hig…¹
#>    <chr>   <chr>             <dbl>                 <dbl>                   <dbl>
#>  1 sample1 Gene1            0.103                  -2.17                  0.0618
#>  2 sample1 Gene10           0.224                  -1.24                  0.110 
#>  3 sample1 Gene100          0.189                  -1.46                  0.0717
#>  4 sample1 Gene101          0.184                  -1.49                  0.0338
#>  5 sample1 Gene102          0.142                  -1.80                  0.0920
#>  6 sample1 Gene103          0.117                  -2.02                  0.0865
#>  7 sample1 Gene104          0.152                  -1.72                  0.0398
#>  8 sample1 Gene105          0.0836                 -2.39                  0.0868
#>  9 sample1 Gene106          0.178                  -1.53                  0.0888
#> 10 sample1 Gene107          0.162                  -1.65                  0.0465
#> # ℹ 1,790 more rows
#> # ℹ abbreviated name: ¹​se_logit_fraction_highTC
#> # ℹ 1 more variable: n <int>
…
